%YAML 1.1
%TAG !u! tag:unity3d.com,2011:
--- !u!114 &11400000
MonoBehaviour:
  m_ObjectHideFlags: 0
  m_CorrespondingSourceObject: {fileID: 0}
  m_PrefabInstance: {fileID: 0}
  m_PrefabAsset: {fileID: 0}
  m_GameObject: {fileID: 0}
  m_Enabled: 1
  m_EditorHideFlags: 0
  m_Script: {fileID: 11500000, guid: 9d1514134bc4fbd41bb739b1b9a49231, type: 3}
  m_Name: Platform
  m_EditorClassIdentifier: 
  m_DefaultSprite: {fileID: -477326439, guid: 3074c0b662a10f9428b808b19fd5886d, type: 3}
  m_DefaultGameObject: {fileID: 0}
  m_DefaultColliderType: 1
  m_TilingRules:
  - m_Id: 0
    m_Sprites:
    - {fileID: -20559874, guid: 3074c0b662a10f9428b808b19fd5886d, type: 3}
    m_GameObject: {fileID: 0}
    m_MinAnimationSpeed: 1
    m_MaxAnimationSpeed: 1
    m_PerlinScale: 0.5
    m_Output: 0
    m_ColliderType: 1
    m_RandomTransform: 0
    m_Neighbors: 02000000020000000100000001000000
    m_NeighborPositions:
    - {x: 0, y: 1, z: 0}
    - {x: -1, y: 0, z: 0}
    - {x: 0, y: -1, z: 0}
    - {x: 1, y: 0, z: 0}
    m_RuleTransform: 0
  - m_Id: 1
    m_Sprites:
    - {fileID: 460962424, guid: 3074c0b662a10f9428b808b19fd5886d, type: 3}
    m_GameObject: {fileID: 0}
    m_MinAnimationSpeed: 1
    m_MaxAnimationSpeed: 1
    m_PerlinScale: 0.5
    m_Output: 0
    m_ColliderType: 1
    m_RandomTransform: 0
    m_Neighbors: 02000000010000000100000001000000
    m_NeighborPositions:
    - {x: 0, y: 1, z: 0}
    - {x: -1, y: 0, z: 0}
    - {x: 1, y: 0, z: 0}
    - {x: 0, y: -1, z: 0}
    m_RuleTransform: 0
  - m_Id: 2
    m_Sprites:
    - {fileID: -782404105, guid: 3074c0b662a10f9428b808b19fd5886d, type: 3}
    m_GameObject: {fileID: 0}
    m_MinAnimationSpeed: 1
    m_MaxAnimationSpeed: 1
    m_PerlinScale: 0.5
    m_Output: 0
    m_ColliderType: 1
    m_RandomTransform: 0
    m_Neighbors: 02000000010000000100000001000000
    m_NeighborPositions:
    - {x: 0, y: 1, z: 0}
    - {x: -1, y: 0, z: 0}
    - {x: 0, y: -1, z: 0}
    - {x: 1, y: 0, z: 0}
    m_RuleTransform: 0
  - m_Id: 3
    m_Sprites:
    - {fileID: 793665731, guid: 3074c0b662a10f9428b808b19fd5886d, type: 3}
    m_GameObject: {fileID: 0}
    m_MinAnimationSpeed: 1
    m_MaxAnimationSpeed: 1
    m_PerlinScale: 0.5
    m_Output: 0
    m_ColliderType: 1
    m_RandomTransform: 0
    m_Neighbors: 02000000020000000100000001000000
    m_NeighborPositions:
    - {x: 1, y: 0, z: 0}
    - {x: 0, y: 1, z: 0}
    - {x: 0, y: -1, z: 0}
    - {x: -1, y: 0, z: 0}
    m_RuleTransform: 0
  - m_Id: 4
    m_Sprites:
    - {fileID: 707833143, guid: 3074c0b662a10f9428b808b19fd5886d, type: 3}
    m_GameObject: {fileID: 0}
    m_MinAnimationSpeed: 1
    m_MaxAnimationSpeed: 1
    m_PerlinScale: 0.5
    m_Output: 0
    m_ColliderType: 1
    m_RandomTransform: 0
    m_Neighbors: 02000000010000000100000001000000
    m_NeighborPositions:
    - {x: -1, y: 0, z: 0}
    - {x: 1, y: 0, z: 0}
    - {x: 0, y: 1, z: 0}
    - {x: 0, y: -1, z: 0}
    m_RuleTransform: 0
  - m_Id: 5
    m_Sprites:
    - {fileID: -344222555, guid: 3074c0b662a10f9428b808b19fd5886d, type: 3}
    m_GameObject: {fileID: 0}
    m_MinAnimationSpeed: 1
    m_MaxAnimationSpeed: 1
    m_PerlinScale: 0.5
    m_Output: 0
    m_ColliderType: 1
    m_RandomTransform: 0
    m_Neighbors: 02000000010000000100000001000000
    m_NeighborPositions:
    - {x: 1, y: 0, z: 0}
    - {x: 0, y: 1, z: 0}
    - {x: -1, y: 0, z: 0}
    - {x: 0, y: -1, z: 0}
    m_RuleTransform: 0
  - m_Id: 7
    m_Sprites:
    - {fileID: -459256239, guid: 3074c0b662a10f9428b808b19fd5886d, type: 3}
    m_GameObject: {fileID: 0}
    m_MinAnimationSpeed: 1
    m_MaxAnimationSpeed: 1
    m_PerlinScale: 0.5
    m_Output: 0
    m_ColliderType: 1
    m_RandomTransform: 0
    m_Neighbors: 02000000010000000200000002000000
    m_NeighborPositions:
    - {x: 0, y: -1, z: 0}
    - {x: 0, y: 1, z: 0}
    - {x: -1, y: 0, z: 0}
    - {x: 1, y: 0, z: 0}
    m_RuleTransform: 0
  - m_Id: 6
    m_Sprites:
    - {fileID: -1371801944, guid: 3074c0b662a10f9428b808b19fd5886d, type: 3}
    m_GameObject: {fileID: 0}
    m_MinAnimationSpeed: 1
    m_MaxAnimationSpeed: 1
    m_PerlinScale: 0.5
    m_Output: 0
    m_ColliderType: 1
    m_RandomTransform: 0
    m_Neighbors: 02000000020000000100000001000000
    m_NeighborPositions:
    - {x: 0, y: -1, z: 0}
    - {x: -1, y: 0, z: 0}
    - {x: 0, y: 1, z: 0}
    - {x: 1, y: 0, z: 0}
    m_RuleTransform: 0
  - m_Id: 8
    m_Sprites:
    - {fileID: 2019631474, guid: 3074c0b662a10f9428b808b19fd5886d, type: 3}
    m_GameObject: {fileID: 0}
    m_MinAnimationSpeed: 1
    m_MaxAnimationSpeed: 1
    m_PerlinScale: 0.5
    m_Output: 0
    m_ColliderType: 1
    m_RandomTransform: 0
    m_Neighbors: 02000000010000000100000001000000
    m_NeighborPositions:
    - {x: 0, y: -1, z: 0}
    - {x: -1, y: 0, z: 0}
    - {x: 0, y: 1, z: 0}
    - {x: 1, y: 0, z: 0}
    m_RuleTransform: 0
  - m_Id: 9
    m_Sprites:
    - {fileID: 352213726, guid: 3074c0b662a10f9428b808b19fd5886d, type: 3}
    m_GameObject: {fileID: 0}
    m_MinAnimationSpeed: 1
    m_MaxAnimationSpeed: 1
    m_PerlinScale: 0.5
    m_Output: 0
    m_ColliderType: 1
    m_RandomTransform: 0
    m_Neighbors: 02000000020000000100000001000000
    m_NeighborPositions:
    - {x: 1, y: 0, z: 0}
    - {x: 0, y: -1, z: 0}
    - {x: -1, y: 0, z: 0}
    - {x: 0, y: 1, z: 0}
    m_RuleTransform: 0
