%YAML 1.1
%TAG !u! tag:unity3d.com,2011:
--- !u!78 &1
TagManager:
  serializedVersion: 2
  tags:
  - TimeManager
  - Item
  layers:
  - Default
  - TransparentFX
  - Ignore Raycast
  - Crop
  - Water
  - UI
  - 
  - 
  - 
  - 
  - 
  - 
  - 
  - 
  - 
  - 
  - 
  - 
  - 
  - 
  - 
  - 
  - 
  - 
  - 
  - 
  - 
  - 
  - 
  - 
  - 
  - 
  m_SortingLayers:
  - name: River
    uniqueID: 456530883
    locked: 0
  - name: Ground
    uniqueID: 3388683701
    locked: 0
  - name: Mineral area
    uniqueID: 236037573
    locked: 0
  - name: Lakeside
    uniqueID: 2916307755
    locked: 0
  - name: Rock
    uniqueID: 2232728123
    locked: 0
  - name: Decorate
    uniqueID: 1788015423
    locked: 0
  - name: Bridge
    uniqueID: 3633735589
    locked: 0
  - name: Tree
    uniqueID: 1869062291
    locked: 0
  - name: Stones
    uniqueID: 664365097
    locked: 0
  - name: House
    uniqueID: 1617635991
    locked: 0
  - name: Default
    uniqueID: 0
    locked: 0
